0.1	0.00349066	2363.26	3855.66	2980.44	608010	33.7325	4156.02	2953.3	655632
0.1	0.00523599	3701.56	6650.41	4673.96	953488	33.7712	7008.85	4474	993227
0.1	0.00698132	5614.57	8832.37	6922.14	1.41212e+06	33.3314	9031.1	6542.52	1.45244e+06
0.1	0.00872665	7802.21	12211	9790.73	1.99731e+06	32.5806	12406.8	9191.89	2.0406e+06
0.15	0.00349066	2422.32	4232.26	3017.26	615520	33.9981	4465.78	2945.31	653858
0.15	0.00523599	3736.05	6205.82	4757.53	970535	35.3758	6428.86	4518.8	1.00317e+06
0.15	0.00698132	5543.53	9113.93	6933.42	1.41442e+06	34.0921	9308.48	6505.75	1.44428e+06
0.15	0.00872665	7807.99	12981.9	9923.7	2.02443e+06	34.0157	13174.3	9262.51	2.05628e+06
0.2	0.00349066	2428.95	4294.77	3129.51	638421	34.2718	4624.53	3052.98	677762
0.2	0.00523599	3995.63	7194.65	5174.64	1.05563e+06	37.5658	7452.11	4926.44	1.09367e+06
0.2	0.00698132	5470.18	8617.98	6912.07	1.41006e+06	32.8757	8769.96	6489.72	1.44072e+06
0.2	0.00872665	7754.12	12801.2	9786.23	1.99641e+06	33.6375	13103.2	9253.64	2.01341e+06
0.25	0.00523599	3680.07	5574.48	4607.6	939951	34.9531	5685.11	4366.28	969314
0.25	0.00698132	5442.52	8218.67	6740.13	1.37499e+06	31.6289	8327.58	6311.13	1.40107e+06
0.25	0.00872665	7773.74	11477.7	9499.57	1.93791e+06	31.8737	11577.8	8840.39	1.96257e+06
0.35	0.00523599	3681.39	5589.81	4611.99	940846	35.0328	5701.4	4363.37	968667
0.35	0.00698132	5469.62	8110.92	6739.4	1.37484e+06	34.9853	8248.12	6310.92	1.40102e+06
0.35	0.00872665	7759.52	11458.8	9503.89	1.93879e+06	33.4379	11535.1	8844.75	1.96353e+06
0.45	0.00523599	3694.83	5617.62	4628.71	944258	32.9438	5687.78	4379	972137
0.45	0.00698132	5413.25	8144.11	6738.44	1.37464e+06	34.8437	8217.31	6316.24	1.40221e+06
0.45	0.00872665	7675.28	1.17806e+07	67350.5	1.37395e+07	33.7237	1.17807e+07	62007.5	1.37657e+07
